Cannonball Data Cleaning and Diagnostics
…
Absolute PE in Oddball Block

template <- c(
    "### Oddball_PE {{nm}}\n",
    "```{r, echo = FALSE}\n",
    "oddball_PE[[{{nm}}]] \n",
    "```\n",
    "\n"
  )

plots <- lapply(1:length(oddball_PE), function(nm) {knitr::knit_expand(text = template)})

Oddball_PE 1

## # A tibble: 240 x 46
## # Groups:   subject, time [1]
##    subject date       time  blockcode trialcode cond  condcolor percentTrialsSt
##      <dbl> <date>     <chr> <chr>     <chr>     <fct> <chr>                <dbl>
##  1     746 2021-08-31 06:5 MainBlock cannon_o ODDB ORANGE                0.86
##  2     746 2021-08-31 06:5 MainBlock cannon_o ODDB ORANGE                0.86
##  3     746 2021-08-31 06:5 MainBlock cannon_o ODDB ORANGE                0.86
##  4     746 2021-08-31 06:5 MainBlock cannon_o ODDB ORANGE                0.86
##  5     746 2021-08-31 06:5 MainBlock cannon_o ODDB ORANGE                0.86
##  6     746 2021-08-31 06:5 MainBlock cannon_o ODDB ORANGE                0.86
##  7     746 2021-08-31 06:5 MainBlock cannon_o ODDB ORANGE                0.86
##  8     746 2021-08-31 06:5 MainBlock cannon_o ODDB ORANGE                0.86
##  9     746 2021-08-31 06:5 MainBlock cannon_o ODDB ORANGE                0.86
## 10     746 2021-08-31 06:5 MainBlock cannon_o ODDB ORANGE                0.86
## #  with 230 more rows, and 38 more variables: practiceblock <dbl>,
## #   cannon <dbl>, conc <dbl>, blocknum <dbl>, trialnum <dbl>, StaySwitch <dbl>,
## #   TAC <dbl>, hitmiss <dbl>, angmu <dbl>, outcome <dbl>, placementAngle <dbl>,
## #   prev_placementAngle <dbl>, trial.placeshield_mouse.latency <dbl>,
## #   cannonballs_caught <dbl>, cannonballs_missed <dbl>, totalearnings <dbl>,
## #   angleup <dbl>, angledown <dbl>, outcomeindex <dbl>, update <dbl>,
## #   distmean <dbl>, shield_size <dbl>, blockearnings <dbl>,
## #   block.InstructionBlock.timestamp <dbl>, trial.begin_block.timestamp <dbl>,
## #   trial.mainloop.timestamp <dbl>, trial.placeshield_mouse.timestamp <dbl>,
…
